FPGA/simulation/qsim/copper.msim.vcd
$comment
	File created using the following command:
		vcd file copper.msim.vcd -direction
$end
$date
	Sun Oct 11 21:33:42 2020
$end
$version
	ModelSim Version 2020.1
$end
$timescale
	1ps
$end

$scope module OneShot_vlg_vec_tst $end
$var reg 1 ! clk $end
$var reg 1 " rst $end
$var reg 1 # signalIn $end
$var wire 1 $ signalOut $end

$scope module i1 $end
$var wire 1 % gnd $end
$var wire 1 & vcc $end
$var wire 1 ' unknown $end
$var tri1 1 ( devclrn $end
$var tri1 1 ) devpor $end
$var tri1 1 * devoe $end
$var wire 1 + signalOut~output_o $end
$var wire 1 , clk~input_o $end
$var wire 1 - signalIn~input_o $end
$var wire 1 . rst~input_o $end
$var wire 1 / laggedSignal~0_combout $end
$var wire 1 0 laggedSignal~q $end
$var wire 1 1 signalOut~0_combout $end
$upscope $end
$upscope $end
$enddefinitions $end
#0
$dumpvars
1!
1"
0#
0$
0%
1&
x'
1(
1)
1*
0+
1,
0-
1.
0/
00
01
$end
#5000
0!
0,
#10000
1#
1!
1-
1,
11
1/
1+
1$
#15000
0!
0,
#20000
1!
1,
10
01
0+
0$
#25000
0!
0,
#30000
1!
1,
#35000
0!
0,
#40000
1!
1,
#45000
0!
0,
#50000
1!
1,
#55000
0!
0,
#60000
1!
1,
#65000
0!
0,
#70000
1!
1,
#75000
0!
0,
#80000
1!
1,
#85000
0!
0,
#90000
1!
1,
#95000
0!
0,
#100000
1!
1,
#105000
0!
0,
#110000
1!
1,
#115000
0!
0,
#120000
1!
1,
#125000
0!
0,
#130000
1!
1,
#135000
0!
0,
#140000
1!
1,
#145000
0!
0,
#150000
1!
1,
#155000
0!
0,
#160000
0#
1!
0-
1,
0/
#165000
0!
0,
#170000
1!
1,
00
#175000
0!
0,
#180000
1#
1!
1-
1,
11
1/
1+
1$
#185000
0!
0,
#190000
0#
1!
0-
1,
01
0/
0+
0$
10
#195000
0!
0,
#200000
1#
1!
1-
1,
1/
00
11
1+
1$
#205000
0!
0,
#210000
0#
1!
0-
1,
01
0/
0+
0$
10
#215000
0!
0,
#220000
1!
1,
00
#225000
0!
0,
#230000
1!
1,
#235000
0!
0,
#240000
1!
1,
#245000
0!
0,
#250000
1!
1,
#255000
0!
0,
#260000
1#
1!
1-
1,
11
1/
1+
1$
#265000
0!
0,
#270000
1!
1,
10
01
0+
0$
#275000
0!
0,
#280000
1!
1,
#285000
0!
0,
#290000
1!
1,
#295000
0!
0,
#300000
1!
1,
#305000
0!
0,
#310000
1!
1,
#315000
0!
0,
#320000
0#
1!
0-
1,
0/
#325000
0!
0,
#330000
1!
1,
00
#335000
0!
0,
#340000
1!
1,
#345000
0!
0,
#350000
1!
1,
#355000
0!
0,
#360000
1!
1,
#365000
0!
0,
#370000
1!
1,
#375000
0!
0,
#380000
1!
1,
#385000
0!
0,
#390000
1!
1,
#395000
0!
0,
#400000
1!
1,
#405000
0!
0,
#410000
1!
1,
#415000
0!
0,
#420000
1!
1,
#425000
0!
0,
#430000
1!
1,
#435000
0!
0,
#440000
1!
1,
#445000
0!
0,
#450000
1!
1,
#455000
0!
0,
#460000
1!
1,
#465000
0!
0,
#470000
1!
1,
#475000
0!
0,
#480000
1!
1,
#485000
0!
0,
#490000
1!
1,
#495000
0!
0,
#500000
1!
1,
#505000
0!
0,
#510000
1!
1,
#515000
0!
0,
#520000
1!
1,
#525000
0!
0,
#530000
1!
1,
#535000
0!
0,
#540000
1!
1,
#545000
0!
0,
#550000
1!
1,
#555000
0!
0,
#560000
1!
1,
#565000
0!
0,
#570000
1!
1,
#575000
0!
0,
#580000
1!
1,
#585000
0!
0,
#590000
1!
1,
#595000
0!
0,
#600000
1!
1,
#605000
0!
0,
#610000
1!
1,
#615000
0!
0,
#620000
1!
1,
#625000
0!
0,
#630000
1!
1,
#635000
0!
0,
#640000
1!
1,
#645000
0!
0,
#650000
1!
1,
#655000
0!
0,
#660000
1!
1,
#665000
0!
0,
#670000
1!
1,
#675000
0!
0,
#680000
1!
1,
#685000
0!
0,
#690000
1!
1,
#695000
0!
0,
#700000
1!
1,
#705000
0!
0,
#710000
1!
1,
#715000
0!
0,
#720000
1!
1,
#725000
0!
0,
#730000
1!
1,
#735000
0!
0,
#740000
1!
1,
#745000
0!
0,
#750000
1!
1,
#755000
0!
0,
#760000
1!
1,
#765000
0!
0,
#770000
1!
1,
#775000
0!
0,
#780000
1!
1,
#785000
0!
0,
#790000
1!
1,
#795000
0!
0,
#800000
1!
1,
#805000
0!
0,
#810000
1!
1,
#815000
0!
0,
#820000
1!
1,
#825000
0!
0,
#830000
1!
1,
#835000
0!
0,
#840000
1!
1,
#845000
0!
0,
#850000
1!
1,
#855000
0!
0,
#860000
1!
1,
#865000
0!
0,
#870000
1!
1,
#875000
0!
0,
#880000
1!
1,
#885000
0!
0,
#890000
1!
1,
#895000
0!
0,
#900000
1!
1,
#905000
0!
0,
#910000
1!
1,
#915000
0!
0,
#920000
1!
1,
#925000
0!
0,
#930000
1!
1,
#935000
0!
0,
#940000
1!
1,
#945000
0!
0,
#950000
1!
1,
#955000
0!
0,
#960000
1!
1,
#965000
0!
0,
#970000
1!
1,
#975000
0!
0,
#980000
1!
1,
#985000
0!
0,
#990000
1!
1,
#995000
0!
0,
